GFORTRAN module version '10' created from statsmod.f90
MD5:f474f9bf0c8662b0968cd5db7ba082e9 -- If you edit this, you'll get what you deserve.

(() () () () () () () () () () () () () () () () () () () () () () () ()
() () ())

()

()

()

()

()

(2 'compute_mean' 'stats' '' 1 ((PROCEDURE UNKNOWN-INTENT MODULE-PROC
DECL UNKNOWN 0 0 FUNCTION IMPLICIT_PURE) (REAL 8 0 0 0 REAL ()) 0 0 () ()
2 () () () 0 0)
3 'compute_var' 'stats' '' 1 ((PROCEDURE UNKNOWN-INTENT MODULE-PROC DECL
UNKNOWN 0 0 SUBROUTINE IMPLICIT_PURE) (UNKNOWN 0 0 0 0 UNKNOWN ()) 4 0 (
5 6) () 0 () () () 0 0)
7 'f' 'stats' '' 1 ((VARIABLE UNKNOWN-INTENT UNKNOWN-PROC UNKNOWN
EXPLICIT-SAVE 0 0 ALLOCATABLE DIMENSION) (REAL 8 0 0 0 REAL ()) 0 0 () (
1 0 DEFERRED () ()) 0 () () () 0 0)
8 'initialize_stats' 'stats' '' 1 ((PROCEDURE UNKNOWN-INTENT MODULE-PROC
DECL UNKNOWN 0 0 SUBROUTINE) (UNKNOWN 0 0 0 0 UNKNOWN ()) 0 0 () () 0 ()
() () 0 0)
9 'n' 'stats' '' 1 ((VARIABLE UNKNOWN-INTENT UNKNOWN-PROC UNKNOWN
EXPLICIT-SAVE 0 0) (INTEGER 4 0 0 0 INTEGER ()) 0 0 () () 0 () () () 0 0)
10 'stats' 'stats' '' 1 ((MODULE UNKNOWN-INTENT UNKNOWN-PROC UNKNOWN
UNKNOWN 0 0) (UNKNOWN 0 0 0 0 UNKNOWN ()) 0 0 () () 0 () () () 0 0)
5 'fmean' '' '' 4 ((VARIABLE IN UNKNOWN-PROC UNKNOWN UNKNOWN 0 0 DUMMY)
(REAL 8 0 0 0 REAL ()) 0 0 () () 0 () () () 0 0)
6 'fvar' '' '' 4 ((VARIABLE OUT UNKNOWN-PROC UNKNOWN UNKNOWN 0 0 DUMMY)
(REAL 8 0 0 0 REAL ()) 0 0 () () 0 () () () 0 0)
)

('compute_mean' 0 2 'compute_var' 0 3 'f' 0 7 'initialize_stats' 0 8 'n'
0 9 'stats' 0 10)
