   0.0000000000000000        11.701111463447925     
  0.10000000000000001        3.6158422952809199     
  0.20000000000000001       -9.4663980270048818     
  0.30000000000000004       -9.4663980270048835     
  0.40000000000000002        3.6158422952809177     
  0.49999999999999989        11.701111463447928     
  0.59999999999999987        3.6158422952809235     
  0.69999999999999984       -9.4663980270048835     
  0.79999999999999982       -9.4663980270048871     
  0.89999999999999980        3.6158422952809190     
